<svg xmlns="http://www.w3.org/2000/svg" width="48.925" height="48.925" viewBox="0 0 48.925 48.925">
  <g id="icon-arrow-right-circle" transform="translate(-0.407 -0.37)">
    <path id="arrow-circle-right" d="M32.462,8A24.462,24.462,0,1,1,8,32.462,24.458,24.458,0,0,1,32.462,8ZM29.612,22.165l7.447,7.141H19.048a2.362,2.362,0,0,0-2.367,2.367v1.578a2.362,2.362,0,0,0,2.367,2.367H37.059L29.612,42.76a2.37,2.37,0,0,0-.039,3.383l1.085,1.075a2.358,2.358,0,0,0,3.344,0l13.089-13.08a2.358,2.358,0,0,0,0-3.344L34,17.7a2.358,2.358,0,0,0-3.344,0l-1.085,1.075A2.382,2.382,0,0,0,29.612,22.165Z" transform="translate(-7.593 -7.63)" fill="#00b58a"/>
  </g>
</svg>
