<svg xmlns="http://www.w3.org/2000/svg" width="40.44" height="35.385" viewBox="0 0 40.44 35.385">
  <path id="icon-forward" d="M39.784,44.467l-13.9-12A1.9,1.9,0,0,0,22.748,33.9V40.22C10.061,40.365,0,42.908,0,54.931c0,4.853,3.126,9.661,6.582,12.174A1.408,1.408,0,0,0,8.8,65.634C5.218,54.18,10.5,51.139,22.748,50.963v6.944a1.9,1.9,0,0,0,3.135,1.435l13.9-12.006A1.9,1.9,0,0,0,39.784,44.467Z" transform="translate(0 -32)" fill="#0c84c8"/>
</svg>
