<?xml version="1.0" encoding="utf-8"?>
<!-- Generator: Adobe Illustrator 22.0.0, SVG Export Plug-In . SVG Version: 6.00 Build 0)  -->
<svg version="1.1" id="Layer_1" xmlns="http://www.w3.org/2000/svg" xmlns:xlink="http://www.w3.org/1999/xlink" x="0px" y="0px"
	 viewBox="0 0 22.6 22.6" style="enable-background:new 0 0 22.6 22.6;" xml:space="preserve">
<style type="text/css">
	.st0{fill:#C31D1D;}
</style>
<path class="st0" d="M22,16.9l-5.5-5.5L22,5.8c0.7-0.7,0.7-1.9,0-2.6l-2.6-2.6c-0.7-0.7-1.9-0.7-2.6,0l-5.5,5.5L5.7,0.6
	C5-0.1,3.8-0.1,3.1,0.6L0.5,3.2c-0.7,0.7-0.7,1.9,0,2.6l5.5,5.5l-5.5,5.5c-0.7,0.7-0.7,1.9,0,2.6L3.1,22c0.7,0.7,1.9,0.7,2.6,0
	l5.5-5.5l5.5,5.5c0.7,0.7,1.9,0.7,2.6,0l2.6-2.6c0.4-0.4,0.6-0.8,0.6-1.3C22.6,17.7,22.4,17.2,22,16.9z"/>
</svg>
