<svg xmlns="http://www.w3.org/2000/svg" width="28" height="28" viewBox="0 0 28 28">
  <g id="icon-play-circle" transform="translate(-370 -248.28)">
    <path id="Path_424" data-name="Path 424" d="M396.123,255.253a13.939,13.939,0,0,0-5.1-5.094,14.085,14.085,0,0,0-14.054,0,13.929,13.929,0,0,0-5.1,5.094,14.088,14.088,0,0,0,0,14.055,13.935,13.935,0,0,0,5.094,5.094,14.087,14.087,0,0,0,14.055,0,13.937,13.937,0,0,0,5.1-5.094,14.095,14.095,0,0,0,0-14.055ZM391,263.283l-9.917,5.834a1.116,1.116,0,0,1-.583.164,1.294,1.294,0,0,1-.583-.146,1.115,1.115,0,0,1-.583-1.021V256.447a1.116,1.116,0,0,1,.583-1.021,1.094,1.094,0,0,1,1.167.018L391,261.278a1.153,1.153,0,0,1,0,2Zm0,0" transform="translate(0 0)" fill="#0c84c8"/>
  </g>
</svg>
