<svg xmlns="http://www.w3.org/2000/svg" width="21" height="21" viewBox="0 0 21 21">
  <g id="icon-duplicate" transform="translate(-362 -239.28)">
    <path id="Path_411" data-name="Path 411" d="M382.672,244.108a1.086,1.086,0,0,0-.8-.329H377a2.979,2.979,0,0,0-1.5.469v-3.844a1.12,1.12,0,0,0-1.125-1.125H369.5a3.123,3.123,0,0,0-1.922.8l-4.781,4.781a3.123,3.123,0,0,0-.8,1.922v7.875a1.121,1.121,0,0,0,1.125,1.125H369.5v3.375a1.12,1.12,0,0,0,1.125,1.125h11.25A1.12,1.12,0,0,0,383,259.155V244.9a1.085,1.085,0,0,0-.328-.8Zm-7.172,2.167v3.5H372Zm-7.5-4.5v3.5h-3.5Zm2.3,7.582a3.127,3.127,0,0,0-.8,1.921v3h-6v-7.5h4.875a1.12,1.12,0,0,0,1.125-1.125V240.78H374v4.875Zm11.2,9.422H371v-7.5h4.875A1.12,1.12,0,0,0,377,250.155V245.28h4.5Zm0,0" fill="#fff"/>
  </g>
</svg>
