<svg xmlns="http://www.w3.org/2000/svg" width="16" height="16" viewBox="0 0 16 16">
  <path id="icon-upload-circle" d="M8,16a8,8,0,1,1,8,8A8,8,0,0,1,8,16Zm9.419,3.742V16h2.287a.387.387,0,0,0,.274-.661l-3.706-3.687a.384.384,0,0,0-.545,0l-3.71,3.687a.387.387,0,0,0,.274.661h2.287v3.742a.388.388,0,0,0,.387.387h2.065A.388.388,0,0,0,17.419,19.742Z" transform="translate(-8 -8)" fill="#fff"/>
</svg>
