<svg xmlns="http://www.w3.org/2000/svg" width="11.93" height="11.93" viewBox="0 0 11.93 11.93">
  <path id="icon-reset" d="M13.954,8A5.945,5.945,0,0,0,9.844,9.652l-.859-.859A.577.577,0,0,0,8,9.2v3.224A.577.577,0,0,0,8.577,13H11.8a.577.577,0,0,0,.408-.985l-1-1a4.04,4.04,0,1,1,.1,5.993.288.288,0,0,0-.394.013l-.954.954a.289.289,0,0,0,.012.419A5.965,5.965,0,1,0,13.954,8Z" transform="translate(-8 -8)" fill="#6d6e71"/>
</svg>
