<svg xmlns="http://www.w3.org/2000/svg" width="16" height="14" viewBox="0 0 16 14">
  <path id="icon-table" d="M14.5,32H1.5A1.5,1.5,0,0,0,0,33.5v11A1.5,1.5,0,0,0,1.5,46h13A1.5,1.5,0,0,0,16,44.5v-11A1.5,1.5,0,0,0,14.5,32ZM7,44H2V41H7Zm0-5H2V36H7Zm7,5H9V41h5Zm0-5H9V36h5Z" transform="translate(0 -32)" fill="#0c84c8"/>
</svg>
