<svg xmlns="http://www.w3.org/2000/svg" width="37.996" height="37.997" viewBox="0 0 37.996 37.997">
  <path id="icon-music-note" d="M38,2.367A2.373,2.373,0,0,0,34.908.1L11.161,7.116A2.374,2.374,0,0,0,9.5,9.379v19.4a10.266,10.266,0,0,0-2.375-.291C3.19,28.489,0,30.615,0,33.238s3.19,4.75,7.124,4.75,7.124-2.126,7.124-4.75V15.9l19-5.567v13.7a10.266,10.266,0,0,0-2.375-.291c-3.935,0-7.124,2.126-7.124,4.75s3.19,4.75,7.124,4.75S38,31.112,38,28.489V2.367Z" transform="translate(0 0.009)" fill="#b5b5b5"/>
</svg>
