<?xml version="1.0" encoding="utf-8"?>
<!-- Generator: Adobe Illustrator 22.0.0, SVG Export Plug-In . SVG Version: 6.00 Build 0)  -->
<svg version="1.1" id="Layer_1" xmlns="http://www.w3.org/2000/svg" xmlns:xlink="http://www.w3.org/1999/xlink" x="0px" y="0px"
	 viewBox="0 0 16 16" style="enable-background:new 0 0 16 16;" xml:space="preserve">
<style type="text/css">
	.st0{fill:#069BA9;}
</style>
<g>
	<circle class="st0" cx="2" cy="8" r="2"/>
	<circle class="st0" cx="8" cy="8" r="2"/>
	<circle class="st0" cx="14" cy="8" r="2"/>
</g>
</svg>
